%YAML 1.1
%TAG !u! tag:unity3d.com,2011:
--- !u!114 &11400000
MonoBehaviour:
  m_ObjectHideFlags: 0
  m_PrefabParentObject: {fileID: 0}
  m_PrefabInternal: {fileID: 0}
  m_GameObject: {fileID: 0}
  m_Enabled: 1
  m_EditorHideFlags: 0
  m_Script: {fileID: 11500000, guid: eb1d8451c1c30e44ea893a01e5c04226, type: 3}
  m_Name: Pirate 1
  m_EditorClassIdentifier: 
  _name: Pirate
  _tasteTemp: {fileID: 11400000, guid: 02113ac6510d10546a40a0ecc993a4af, type: 2}
  _tastePermanent: {fileID: 11400000, guid: e8ac6b2c3e883674c9553401235c9cc9, type: 2}
  _sealOfApprouval: {fileID: 21300000, guid: 6038e6fdd10d88641b4fabc66d9940b5, type: 3}
  _sealOfDisagree: {fileID: 21300000, guid: 8e9a5775c2871244e8646f6770bd54d3, type: 3}
