%YAML 1.1
%TAG !u! tag:unity3d.com,2011:
--- !u!21 &2100000
Material:
  serializedVersion: 3
  m_ObjectHideFlags: 0
  m_PrefabParentObject: {fileID: 0}
  m_PrefabInternal: {fileID: 0}
  m_Name: Tomate_Burned
  m_Shader: {fileID: 4800000, guid: 5031f7119210c04449bd48c7e8a1a8b1, type: 3}
  m_ShaderKeywords: []
  m_CustomRenderQueue: -1
  m_SavedProperties:
    serializedVersion: 2
    m_TexEnvs:
      data:
        first:
          name: _MainTex
        second:
          m_Texture: {fileID: 2800000, guid: 0826f2a6a0d756840ae693d38a4a54f7, type: 3}
          m_Scale: {x: 1, y: 1}
          m_Offset: {x: 0, y: 0}
      data:
        first:
          name: _BumpMap
        second:
          m_Texture: {fileID: 0}
          m_Scale: {x: 1, y: 1}
          m_Offset: {x: 0, y: 0}
      data:
        first:
          name: _Ramp
        second:
          m_Texture: {fileID: 2800000, guid: 7ed013727c5467548b3abd8a3de4e0ad, type: 3}
          m_Scale: {x: 1, y: 1}
          m_Offset: {x: 0, y: 0}
      data:
        first:
          name: _CookedTex
        second:
          m_Texture: {fileID: 2800000, guid: 486ab46f4f116454aa021a88587480a9, type: 3}
          m_Scale: {x: 1, y: 1}
          m_Offset: {x: 0, y: 0}
      data:
        first:
          name: _BurntTex
        second:
          m_Texture: {fileID: 2800000, guid: a6df9ffa33fa70a4aaeaeb8eb39f88ac, type: 3}
          m_Scale: {x: 1, y: 1}
          m_Offset: {x: 0, y: 0}
    m_Floats:
      data:
        first:
          name: _Ratio
        second: .964285672
    m_Colors:
      data:
        first:
          name: _Color
        second: {r: .588, g: .588, b: .588, a: 1}
