%YAML 1.1
%TAG !u! tag:unity3d.com,2011:
--- !u!21 &2100000
Material:
  serializedVersion: 3
  m_ObjectHideFlags: 0
  m_PrefabParentObject: {fileID: 0}
  m_PrefabInternal: {fileID: 0}
  m_Name: Highlight-Behind
  m_Shader: {fileID: 4800000, guid: 937d65e19c2ff5847a12605aed854a2e, type: 3}
  m_ShaderKeywords: []
  m_CustomRenderQueue: -1
  m_SavedProperties:
    serializedVersion: 2
    m_TexEnvs:
      data:
        first:
          name: _MainTex
        second:
          m_Texture: {fileID: 0}
          m_Scale: {x: 1, y: 1}
          m_Offset: {x: 0, y: 0}
      data:
        first:
          name: _BumpMap
        second:
          m_Texture: {fileID: 0}
          m_Scale: {x: 1, y: 1}
          m_Offset: {x: 0, y: 0}
    m_Floats:
      data:
        first:
          name: _OutlineSize
        second: 1.10000002
      data:
        first:
          name: _RimPow
        second: 1
    m_Colors:
      data:
        first:
          name: _Color
        second: {r: 1, g: 0, b: 0, a: 1}
      data:
        first:
          name: _OutlineColor
        second: {r: 1, g: 0, b: 0, a: 1}
      data:
        first:
          name: _Barycenter
        second: {r: 0, g: 0, b: 0, a: 1}
      data:
        first:
          name: _RimCol
        second: {r: 1, g: 0, b: 0, a: 1}
