%YAML 1.1
%TAG !u! tag:unity3d.com,2011:
--- !u!114 &11400000
MonoBehaviour:
  m_ObjectHideFlags: 0
  m_PrefabParentObject: {fileID: 0}
  m_PrefabInternal: {fileID: 0}
  m_GameObject: {fileID: 0}
  m_Enabled: 1
  m_EditorHideFlags: 0
  m_Script: {fileID: 11500000, guid: 7bf21bf0a5833aa4a9ce747be04b2db6, type: 3}
  m_Name: Echalote
  m_EditorClassIdentifier: 
  _name: Shallot
  _image: {fileID: 21300000, guid: 4ab8bc87d48255f44b0d6a732253d585, type: 3}
  _prefab: {fileID: 100004, guid: 099e0b30552a0674fad478b37739c400, type: 2}
