%YAML 1.1
%TAG !u! tag:unity3d.com,2011:
--- !u!114 &11400000
MonoBehaviour:
  m_ObjectHideFlags: 0
  m_PrefabParentObject: {fileID: 0}
  m_PrefabInternal: {fileID: 0}
  m_GameObject: {fileID: 0}
  m_Enabled: 1
  m_EditorHideFlags: 0
  m_Script: {fileID: 11500000, guid: 65ba2da355c432447803acd139723dec, type: 3}
  m_Name: AkWwiseProjectData 1
  m_EditorClassIdentifier: 
  EventWwu: []
  AuxBusWwu: []
  StateWwu: []
  SwitchWwu: []
  BankWwu: []
  ExpandedItems: []
  m_lastPopulateTimePsrt1: 0
  m_lastPopulateTimePart2: 0
  autoPopulateEnabled: 1
  basePath: Audio\GeneratedSoundBanks
  language: English(US)
  defaultPoolSize: 4096
  lowerPoolSize: 2048
  streamingPoolSize: 1024
  memoryCutoffThreshold: .949999988
