%YAML 1.1
%TAG !u! tag:unity3d.com,2011:
--- !u!114 &11400000
MonoBehaviour:
  m_ObjectHideFlags: 0
  m_PrefabParentObject: {fileID: 0}
  m_PrefabInternal: {fileID: 0}
  m_GameObject: {fileID: 0}
  m_Enabled: 1
  m_EditorHideFlags: 0
  m_Script: {fileID: 11500000, guid: 64b4294d72a69d445b8b9947036247f6, type: 3}
  m_Name: Salt
  m_EditorClassIdentifier: 
  _tasteType: 0
  _value: Salt
  _image: {fileID: 21300000, guid: 5ae54234eb0f14942a4abcd5664aaae9, type: 3}
