%YAML 1.1
%TAG !u! tag:unity3d.com,2011:
--- !u!74 &7400000
AnimationClip:
  m_ObjectHideFlags: 0
  m_PrefabParentObject: {fileID: 0}
  m_PrefabInternal: {fileID: 0}
  m_Name: A_GoldRemoval
  serializedVersion: 4
  m_AnimationType: 1
  m_Compressed: 0
  m_UseHighQualityCurve: 1
  m_RotationCurves: []
  m_CompressedRotationCurves: []
  m_PositionCurves: []
  m_ScaleCurves: []
  m_FloatCurves:
  - curve:
      serializedVersion: 2
      m_Curve:
      - time: 0
        value: 250
        inSlope: -30
        outSlope: -49.5267944
        tangentMode: 1
      - time: 2.5
        value: 200
        inSlope: -.417596132
        outSlope: -60
        tangentMode: 1
      m_PreInfinity: 2
      m_PostInfinity: 2
    attribute: currentGold
    path: 
    classID: 114
    script: {fileID: 11500000, guid: d8af0d3cbc90a924fb90358f3f139051, type: 3}
  m_PPtrCurves: []
  m_SampleRate: 10
  m_WrapMode: 0
  m_Bounds:
    m_Center: {x: 0, y: 0, z: 0}
    m_Extent: {x: 0, y: 0, z: 0}
  m_ClipBindingConstant:
    genericBindings: []
    pptrCurveMapping: []
  m_AnimationClipSettings:
    serializedVersion: 2
    m_StartTime: 0
    m_StopTime: 2.5
    m_OrientationOffsetY: 0
    m_Level: 0
    m_CycleOffset: 0
    m_LoopTime: 0
    m_LoopBlend: 0
    m_LoopBlendOrientation: 0
    m_LoopBlendPositionY: 0
    m_LoopBlendPositionXZ: 0
    m_KeepOriginalOrientation: 0
    m_KeepOriginalPositionY: 1
    m_KeepOriginalPositionXZ: 0
    m_HeightFromFeet: 0
    m_Mirror: 0
  m_EditorCurves:
  - curve:
      serializedVersion: 2
      m_Curve:
      - time: 0
        value: 250
        inSlope: -30
        outSlope: -49.5267944
        tangentMode: 1
      - time: 2.5
        value: 200
        inSlope: -.417596132
        outSlope: -60
        tangentMode: 1
      m_PreInfinity: 2
      m_PostInfinity: 2
    attribute: currentGold
    path: 
    classID: 114
    script: {fileID: 11500000, guid: d8af0d3cbc90a924fb90358f3f139051, type: 3}
  m_EulerEditorCurves: []
  m_Events: []
